C:\Users\UpperzzTime\Desktop\soft_dev\OX_oop\src\main\java\OOP\gameControl.java
C:\Users\UpperzzTime\Desktop\soft_dev\OX_oop\src\main\java\OOP\main.java
C:\Users\UpperzzTime\Desktop\soft_dev\OX_oop\src\main\java\OOP\frmBoard.java
C:\Users\UpperzzTime\Desktop\soft_dev\OX_oop\src\main\java\OOP\player.java
C:\Users\UpperzzTime\Desktop\soft_dev\OX_oop\src\main\java\OOP\table.java
